{
  "AWSTemplateFormatVersion" : "2010-09-09",
  "Description": "CYC Command services sandbox EC2",
  "Resources" : {
	"EC2Instance" : {
	  "Type" : "AWS::EC2::Instance",
	  "Properties" : {
		"InstanceType" : "t2.micro",
		"SecurityGroupIds" : [ "sg-530e7026" ],
		"SubnetId": "subnet-b38ff8d7",
		"KeyName" : "cyc-cmd-svc",
		"ImageId" : "ami-1853ac65",
		"IamInstanceProfile": "cip-service-logging",
		"Tags": [
		  { "Key": "Name", "Value": "cyc-cmd-svc" }
		]
	  }
	}
  },
  "Outputs" : {
	"InstanceId" : {
	  "Description" : "InstanceId of the newly created EC2 instance",
	  "Value" : { "Ref" : "EC2Instance" }
	},
	"AZ" : {
	  "Description" : "Availability Zone of the newly created EC2 instance",
	  "Value" : { "Fn::GetAtt" : [ "EC2Instance", "AvailabilityZone" ] }
	}
  }
}